…
As one can see, overwhelmingly tornadoes in the USA contribute to the most injuries and fatalities to human life.



```r
tornado_table <- clean_storm_data %>% 
  filter(EVTYPE == "TORNADO") %>% 
  mutate(BGN_DATE = year(BGN_DATE)) %>% 
  group_by(BGN_DATE) %>% 
  summarise(FATALITIES = sum(FATALITIES), INJURIES = sum(INJURIES)) %>% 
  print()
```

```
## # A tibble: 62 x 3
##    BGN_DATE FATALITIES INJURIES
##       <dbl>      <dbl>    <dbl>
##  1     1950         70      659
##  2     1951         34      524
##  3     1952        230     1915
##  4     1953        519     5131
##  5     1954         36      715
##  6     1955        129      926
##  7     1956         83     1355
##  8     1957        193     1976
##  9     1958         67      535
## 10     1959         58      734
## # ... with 52 more rows
```
…
